digraph "Graphical Class Hierarchy"
{
 // LATEX_PDF_SIZE
  edge [fontname="Helvetica",fontsize="10",labelfontname="Helvetica",labelfontsize="10"];
  node [fontname="Helvetica",fontsize="10",shape=record];
  rankdir="LR";
  Node7 [label="Exception",height=0.2,width=0.4,color="grey75", fillcolor="white", style="filled",tooltip=" "];
  Node7 -> Node0 [dir="back",color="midnightblue",fontsize="10",style="solid",fontname="Helvetica"];
  Node0 [label="libdbr.logger.LogLevelError",height=0.2,width=0.4,color="black", fillcolor="white", style="filled",URL="$classlibdbr_1_1logger_1_1_log_level_error.html",tooltip="Exception class for log level errors."];
}
